<?xml version="1.0" encoding="utf-8"?>
<!-- Generator: Adobe Illustrator 16.0.0, SVG Export Plug-In . SVG Version: 6.00 Build 0)  -->
<!DOCTYPE svg PUBLIC "-//W3C//DTD SVG 1.1//EN" "http://www.w3.org/Graphics/SVG/1.1/DTD/svg11.dtd">
<svg version="1.1" id="Capa_1" xmlns="http://www.w3.org/2000/svg" xmlns:xlink="http://www.w3.org/1999/xlink" x="0px" y="0px"
	 width="1200px" height="1548.5px" viewBox="0 0 1200 1548.5" enable-background="new 0 0 1200 1548.5" xml:space="preserve">
<path fill="#F39C11" d="M942.903,219.066c-194.797-194.797-509.47-194.797-701.769,0c-194.797,194.797-194.797,506.972,0,701.769
	l349.636,352.134l349.635-349.635C1135.202,728.536,1135.202,413.864,942.903,219.066z M590.771,915.842
	c-189.804,0-344.642-154.839-344.642-344.642c0-189.803,154.838-344.642,344.642-344.642c189.803,0,344.641,154.838,344.641,344.642
	C935.411,761.003,780.571,915.842,590.771,915.842z"/>
<ellipse fill="#D0D0D0" cx="590.5" cy="1373.5" rx="294" ry="58"/>
<g>
	
		<image overflow="visible" opacity="0.35" width="387" height="387" xlink:href="4D536823.png"  transform="matrix(1 0 0 1 690.5 776.5)">
	</image>
	<g>
		<circle fill="#77BAE8" cx="883.047" cy="975.547" r="178"/>
	</g>
</g>
<g>
	<g id="Plus">
		<g>
			<path fill="#FFFFFF" d="M940.152,968.057h-49.615v-49.611c0-4.131-3.353-7.492-7.49-7.492c-4.137,0-7.49,3.361-7.49,7.49v49.613
				h-49.614c-4.134,0-7.489,3.361-7.489,7.49c0,4.145,3.355,7.49,7.489,7.49h49.614v49.613c0,4.146,3.354,7.488,7.49,7.488
				c4.138,0,7.49-3.346,7.49-7.488v-49.613h49.615c4.137,0,7.488-3.348,7.488-7.49C947.641,971.418,944.286,968.057,940.152,968.057
				z"/>
		</g>
	</g>
</g>
<g>
	<g>
		<path fill="#435B6C" d="M738.939,666.464c-13.677-25.852-57.032-51.77-62.098-54.739c-10.36-5.906-21.414-7.672-31.081-5.016
			c-7.622,2.096-13.842,6.766-18.099,13.545c-5.41,6.434-12.324,14.271-13.627,15.459c-10.69,7.259-17.107,6.599-26.412-2.689
			l-71.88-71.88c-9.289-9.305-9.948-15.723-3.218-25.72c1.716-1.996,9.42-8.826,15.97-14.32c6.781-4.256,11.45-10.492,13.562-18.098
			c2.673-9.667,0.891-20.704-5.114-31.263c-2.871-4.9-28.806-48.239-54.656-61.931c-16.052-8.464-35.454-5.56-48.289,7.274
			l-15.888,15.887c-34.15,34.15-41.475,75.245-21.117,118.799c6.747,14.452,16.695,28.326,29.581,41.244l128.384,128.813
			c10.526,10.56,21.612,19.09,32.962,25.325c19.335,10.641,38.175,15.921,56.24,15.921c25.836,0,50.054-10.856,71.633-32.435
			l15.887-15.888C744.515,701.918,747.419,682.516,738.939,666.464z"/>
	</g>
</g>
<g>
	<g>
		<polygon fill="#435B6C" points="686.085,487.699 704.86,487.699 704.86,462.671 		"/>
	</g>
</g>
<g>
	<g>
		<path fill="#435B6C" d="M665.035,367.096c-64.11,0-114.345,50.73-114.345,115.482c0,13.182,1.023,32.171,9.123,50.17
			l-8.827,45.698c-1.072,5.593,0.826,11.383,5.016,15.244c3.084,2.854,7.093,4.371,11.186,4.371c1.484,0,2.969-0.198,4.421-0.61
			l40.303-11.219c15.624,7.754,34.216,11.829,54.26,11.829c64.771,0,115.483-50.73,115.483-115.483
			C781.656,418.899,729.342,367.096,665.035,367.096z M661.06,525.242h-46.31c-4.207,0-7.886-2.558-9.354-6.5
			c-1.468-3.96-0.347-8.281,2.854-11.037l37.796-32.583c4.835-4.866,4.719-11.581,2.872-16.134
			c-2.195-5.444-6.896-8.744-12.589-8.826c-10.657,0-19.07,8.414-19.07,18.758c0,3.464-2.805,6.27-6.27,6.27
			c-3.448,0-6.252-2.805-6.252-6.27c0-17.239,14.04-31.28,31.296-31.28c11.218,0.182,20.406,6.549,24.482,16.646
			c4.207,10.394,1.864,22.173-5.973,29.993l-32.962,28.458h39.479c3.448,0,6.253,2.788,6.253,6.252
			C667.312,522.438,664.507,525.242,661.06,525.242z M723.635,500.215h-6.253v18.774c0,3.449-2.805,6.253-6.27,6.253
			c-3.447,0-6.252-2.805-6.252-6.253v-18.774h-31.279c-2.376,0-4.554-1.336-5.609-3.464c-1.056-2.111-0.825-4.652,0.594-6.549
			l37.549-50.053c1.617-2.161,4.421-3.035,6.979-2.194c2.558,0.858,4.29,3.25,4.29,5.939v43.801h6.252
			c3.465,0,6.253,2.805,6.253,6.269C729.887,497.411,727.098,500.215,723.635,500.215z"/>
	</g>
</g>
</svg>
